solid 1_90_scale_carderock_sfs2_origin_at_bow
   facet normal 0.000000e+00 -1.000000e+00 0.000000e+00
      outer loop
         vertex 4.572000e-01 -7.620000e-02 -3.333337e-09
         vertex 1.540933e+00 -7.620000e-02 -3.333337e-09
         vertex 1.236133e+00 -7.620000e-02 5.080000e-02
      endloop
   endfacet
   facet normal 0.000000e+00 -1.000000e+00 0.000000e+00
      outer loop
         vertex 1.236133e+00 -7.620000e-02 5.080000e-02
         vertex 1.540933e+00 -7.620000e-02 -3.333337e-09
         vertex 1.540933e+00 -7.620000e-02 5.080000e-02
      endloop
   endfacet
   facet normal 0.000000e+00 -1.000000e+00 0.000000e+00
      outer loop
         vertex 4.572000e-01 -7.620000e-02 -3.333337e-09
         vertex 1.236133e+00 -7.620000e-02 5.080000e-02
         vertex 4.572000e-01 -7.620000e-02 5.080000e-02
      endloop
   endfacet
   facet normal 0.000000e+00 -1.000000e+00 0.000000e+00
      outer loop
         vertex 4.572000e-01 -7.620000e-02 5.080000e-02
         vertex 1.236133e+00 -7.620000e-02 5.080000e-02
         vertex 1.236133e+00 -7.620000e-02 1.185333e-01
      endloop
   endfacet
   facet normal 0.000000e+00 -1.000000e+00 0.000000e+00
      outer loop
         vertex 4.572000e-01 -7.620000e-02 5.080000e-02
         vertex 1.236133e+00 -7.620000e-02 1.185333e-01
         vertex 4.572000e-01 -7.620000e-02 1.185333e-01
      endloop
   endfacet
   facet normal 1.000000e+00 0.000000e+00 0.000000e+00
      outer loop
         vertex 1.540933e+00 7.619999e-02 5.080000e-02
         vertex 1.540933e+00 -7.620000e-02 5.080000e-02
         vertex 1.540933e+00 7.619999e-02 -3.333336e-09
      endloop
   endfacet
   facet normal 1.000000e+00 0.000000e+00 0.000000e+00
      outer loop
         vertex 1.540933e+00 7.619999e-02 -3.333336e-09
         vertex 1.540933e+00 -7.620000e-02 5.080000e-02
         vertex 1.540933e+00 -7.620000e-02 -3.333337e-09
      endloop
   endfacet
   facet normal -0.000000e+00 1.000000e+00 0.000000e+00
      outer loop
         vertex 1.236133e+00 7.619999e-02 5.080000e-02
         vertex 1.540933e+00 7.619999e-02 5.080000e-02
         vertex 1.540933e+00 7.619999e-02 -3.333336e-09
      endloop
   endfacet
   facet normal -0.000000e+00 1.000000e+00 0.000000e+00
      outer loop
         vertex 4.572000e-01 7.619999e-02 1.185333e-01
         vertex 1.236133e+00 7.619999e-02 1.185333e-01
         vertex 4.572000e-01 7.619999e-02 5.080000e-02
      endloop
   endfacet
   facet normal 0.000000e+00 1.000000e+00 0.000000e+00
      outer loop
         vertex 4.572000e-01 7.619999e-02 5.080000e-02
         vertex 1.236133e+00 7.619999e-02 1.185333e-01
         vertex 1.236133e+00 7.619999e-02 5.080000e-02
      endloop
   endfacet
   facet normal -0.000000e+00 1.000000e+00 0.000000e+00
      outer loop
         vertex 4.572000e-01 7.619999e-02 5.080000e-02
         vertex 1.236133e+00 7.619999e-02 5.080000e-02
         vertex 4.572000e-01 7.619999e-02 -3.333336e-09
      endloop
   endfacet
   facet normal 0.000000e+00 1.000000e+00 0.000000e+00
      outer loop
         vertex 4.572000e-01 7.619999e-02 -3.333336e-09
         vertex 1.236133e+00 7.619999e-02 5.080000e-02
         vertex 1.540933e+00 7.619999e-02 -3.333336e-09
      endloop
   endfacet
   facet normal 0.000000e+00 0.000000e+00 1.000000e+00
      outer loop
         vertex 1.540933e+00 7.619999e-02 5.080000e-02
         vertex 1.236133e+00 7.619999e-02 5.080000e-02
         vertex 1.540933e+00 -7.620000e-02 5.080000e-02
      endloop
   endfacet
   facet normal 0.000000e+00 0.000000e+00 1.000000e+00
      outer loop
         vertex 1.540933e+00 -7.620000e-02 5.080000e-02
         vertex 1.236133e+00 7.619999e-02 5.080000e-02
         vertex 1.236133e+00 -7.620000e-02 5.080000e-02
      endloop
   endfacet
   facet normal -2.428309e-16 1.456986e-15 -1.000000e+00
      outer loop
         vertex -8.791190e-10 -4.652675e-09 -3.333337e-09
         vertex 4.572000e-01 7.619999e-02 -3.333337e-09
         vertex 4.572000e-01 -7.620000e-02 -3.333337e-09
      endloop
   endfacet
   facet normal 0.000000e+00 1.456986e-15 -1.000000e+00
      outer loop
         vertex 4.572000e-01 -7.620000e-02 -3.333337e-09
         vertex 4.572000e-01 7.619999e-02 -3.333337e-09
         vertex 1.540933e+00 7.619999e-02 -3.333337e-09
      endloop
   endfacet
   facet normal 0.000000e+00 1.456986e-15 -1.000000e+00
      outer loop
         vertex 4.572000e-01 -7.620000e-02 -3.333337e-09
         vertex 1.540933e+00 7.619999e-02 -3.333337e-09
         vertex 1.540933e+00 -7.620000e-02 -3.333337e-09
      endloop
   endfacet
   facet normal 1.000000e+00 0.000000e+00 -0.000000e+00
      outer loop
         vertex 1.236133e+00 7.619999e-02 5.080000e-02
         vertex 1.236133e+00 7.619999e-02 1.185333e-01
         vertex 1.236133e+00 -7.620000e-02 5.080000e-02
      endloop
   endfacet
   facet normal 1.000000e+00 0.000000e+00 0.000000e+00
      outer loop
         vertex 1.236133e+00 -7.620000e-02 5.080000e-02
         vertex 1.236133e+00 7.619999e-02 1.185333e-01
         vertex 1.236133e+00 -7.620000e-02 1.185333e-01
      endloop
   endfacet
   facet normal 0.000000e+00 0.000000e+00 1.000000e+00
      outer loop
         vertex 1.236133e+00 -7.620000e-02 1.185333e-01
         vertex 1.066800e+00 -1.693334e-02 1.185333e-01
         vertex 9.990667e-01 -1.693334e-02 1.185333e-01
      endloop
   endfacet
   facet normal -0.000000e+00 0.000000e+00 1.000000e+00
      outer loop
         vertex 1.066800e+00 -1.693334e-02 1.185333e-01
         vertex 1.236133e+00 -7.620000e-02 1.185333e-01
         vertex 1.066800e+00 1.693333e-02 1.185333e-01
      endloop
   endfacet
   facet normal -0.000000e+00 0.000000e+00 1.000000e+00
      outer loop
         vertex 1.066800e+00 1.693333e-02 1.185333e-01
         vertex 1.236133e+00 -7.620000e-02 1.185333e-01
         vertex 1.236133e+00 7.619999e-02 1.185333e-01
      endloop
   endfacet
   facet normal 0.000000e+00 -0.000000e+00 1.000000e+00
      outer loop
         vertex 1.066800e+00 1.693333e-02 1.185333e-01
         vertex 1.236133e+00 7.619999e-02 1.185333e-01
         vertex 9.990667e-01 1.693333e-02 1.185333e-01
      endloop
   endfacet
   facet normal 0.000000e+00 -0.000000e+00 1.000000e+00
      outer loop
         vertex 9.990667e-01 1.693333e-02 1.185333e-01
         vertex 1.236133e+00 7.619999e-02 1.185333e-01
         vertex 4.572000e-01 7.619999e-02 1.185333e-01
      endloop
   endfacet
   facet normal 0.000000e+00 0.000000e+00 1.000000e+00
      outer loop
         vertex 9.990667e-01 1.693333e-02 1.185333e-01
         vertex 4.572000e-01 7.619999e-02 1.185333e-01
         vertex 9.990667e-01 -1.693334e-02 1.185333e-01
      endloop
   endfacet
   facet normal 0.000000e+00 0.000000e+00 1.000000e+00
      outer loop
         vertex 9.990667e-01 -1.693334e-02 1.185333e-01
         vertex 4.572000e-01 7.619999e-02 1.185333e-01
         vertex 4.572000e-01 -7.620000e-02 1.185333e-01
      endloop
   endfacet
   facet normal 0.000000e+00 0.000000e+00 1.000000e+00
      outer loop
         vertex 9.990667e-01 -1.693334e-02 1.185333e-01
         vertex 4.572000e-01 -7.620000e-02 1.185333e-01
         vertex 1.236133e+00 -7.620000e-02 1.185333e-01
      endloop
   endfacet
   facet normal -0.000000e+00 -1.000000e+00 -0.000000e+00
      outer loop
         vertex 1.066800e+00 -1.693334e-02 1.862667e-01
         vertex 9.990667e-01 -1.693334e-02 1.862667e-01
         vertex 1.066800e+00 -1.693334e-02 1.185333e-01
      endloop
   endfacet
   facet normal 0.000000e+00 -1.000000e+00 0.000000e+00
      outer loop
         vertex 1.066800e+00 -1.693334e-02 1.185333e-01
         vertex 9.990667e-01 -1.693334e-02 1.862667e-01
         vertex 9.990667e-01 -1.693334e-02 1.185333e-01
      endloop
   endfacet
   facet normal 1.000000e+00 0.000000e+00 0.000000e+00
      outer loop
         vertex 1.066800e+00 1.693333e-02 1.862667e-01
         vertex 1.066800e+00 -1.693334e-02 1.862667e-01
         vertex 1.066800e+00 1.693333e-02 1.185333e-01
      endloop
   endfacet
   facet normal 1.000000e+00 0.000000e+00 0.000000e+00
      outer loop
         vertex 1.066800e+00 1.693333e-02 1.185333e-01
         vertex 1.066800e+00 -1.693334e-02 1.862667e-01
         vertex 1.066800e+00 -1.693334e-02 1.185333e-01
      endloop
   endfacet
   facet normal -0.000000e+00 1.000000e+00 0.000000e+00
      outer loop
         vertex 9.990667e-01 1.693333e-02 1.862667e-01
         vertex 1.066800e+00 1.693333e-02 1.862667e-01
         vertex 9.990667e-01 1.693333e-02 1.185333e-01
      endloop
   endfacet
   facet normal 0.000000e+00 1.000000e+00 0.000000e+00
      outer loop
         vertex 9.990667e-01 1.693333e-02 1.185333e-01
         vertex 1.066800e+00 1.693333e-02 1.862667e-01
         vertex 1.066800e+00 1.693333e-02 1.185333e-01
      endloop
   endfacet
   facet normal -1.000000e+00 0.000000e+00 0.000000e+00
      outer loop
         vertex 9.990667e-01 -1.693334e-02 1.862667e-01
         vertex 9.990667e-01 1.693333e-02 1.862667e-01
         vertex 9.990667e-01 -1.693334e-02 1.185333e-01
      endloop
   endfacet
   facet normal -1.000000e+00 0.000000e+00 0.000000e+00
      outer loop
         vertex 9.990667e-01 -1.693334e-02 1.185333e-01
         vertex 9.990667e-01 1.693333e-02 1.862667e-01
         vertex 9.990667e-01 1.693333e-02 1.185333e-01
      endloop
   endfacet
   facet normal 0.000000e+00 -0.000000e+00 1.000000e+00
      outer loop
         vertex 1.066800e+00 -1.693334e-02 1.862667e-01
         vertex 1.066800e+00 1.693333e-02 1.862667e-01
         vertex 9.990667e-01 -1.693334e-02 1.862667e-01
      endloop
   endfacet
   facet normal 0.000000e+00 0.000000e+00 1.000000e+00
      outer loop
         vertex 9.990667e-01 -1.693334e-02 1.862667e-01
         vertex 1.066800e+00 1.693333e-02 1.862667e-01
         vertex 9.990667e-01 1.693333e-02 1.862667e-01
      endloop
   endfacet
   facet normal -1.000000e+00 0.000000e+00 0.000000e+00
      outer loop
         vertex 4.572000e-01 -7.620000e-02 1.185333e-01
         vertex 4.572000e-01 7.619999e-02 1.185333e-01
         vertex 4.572000e-01 -7.620000e-02 5.080000e-02
      endloop
   endfacet
   facet normal -1.000000e+00 0.000000e+00 0.000000e+00
      outer loop
         vertex 4.572000e-01 -7.620000e-02 5.080000e-02
         vertex 4.572000e-01 7.619999e-02 1.185333e-01
         vertex 4.572000e-01 7.619999e-02 5.080000e-02
      endloop
   endfacet
   facet normal -1.643990e-01 -9.863939e-01 -0.000000e+00
      outer loop
         vertex 4.572000e-01 -7.620000e-02 5.080000e-02
         vertex -8.791119e-10 -4.652675e-09 5.080000e-02
         vertex 4.572000e-01 -7.620000e-02 -3.333337e-09
      endloop
   endfacet
   facet normal -1.643990e-01 -9.863939e-01 0.000000e+00
      outer loop
         vertex 4.572000e-01 -7.620000e-02 -3.333337e-09
         vertex -8.791119e-10 -4.652675e-09 5.080000e-02
         vertex -8.791119e-10 -4.652675e-09 -3.333337e-09
      endloop
   endfacet
   facet normal -1.643990e-01 9.863939e-01 8.622971e-15
      outer loop
         vertex -8.791118e-10 -4.652676e-09 5.080000e-02
         vertex 4.572000e-01 7.619999e-02 5.080000e-02
         vertex -8.791118e-10 -4.652675e-09 -3.333337e-09
      endloop
   endfacet
   facet normal -1.643990e-01 9.863939e-01 0.000000e+00
      outer loop
         vertex -8.791118e-10 -4.652675e-09 -3.333337e-09
         vertex 4.572000e-01 7.619999e-02 5.080000e-02
         vertex 4.572000e-01 7.619999e-02 -3.333336e-09
      endloop
   endfacet
   facet normal 0.000000e+00 -0.000000e+00 1.000000e+00
      outer loop
         vertex 4.572000e-01 -7.620000e-02 5.080000e-02
         vertex 4.572000e-01 7.619999e-02 5.080000e-02
         vertex -8.791190e-10 -4.652675e-09 5.080000e-02
      endloop
   endfacet
endsolid