solid 1_50_scale_carderock_sfs2_no_out_surface_long_fluid_15_width_4totlength_1_ship_2
   facet normal 0.000000e+00 -1.000000e+00 0.000000e+00
      outer loop
         vertex 3.596640e+00 1.943100e+00 0.000000e+00
         vertex 5.547360e+00 1.943100e+00 0.000000e+00
         vertex 4.998720e+00 1.943100e+00 9.144000e-02
      endloop
   endfacet
   facet normal 0.000000e+00 -1.000000e+00 0.000000e+00
      outer loop
         vertex 4.998720e+00 1.943100e+00 9.144000e-02
         vertex 5.547360e+00 1.943100e+00 0.000000e+00
         vertex 5.547360e+00 1.943100e+00 9.144000e-02
      endloop
   endfacet
   facet normal 0.000000e+00 -1.000000e+00 0.000000e+00
      outer loop
         vertex 3.596640e+00 1.943100e+00 0.000000e+00
         vertex 4.998720e+00 1.943100e+00 9.144000e-02
         vertex 3.596640e+00 1.943100e+00 9.144000e-02
      endloop
   endfacet
   facet normal 0.000000e+00 -1.000000e+00 0.000000e+00
      outer loop
         vertex 3.596640e+00 1.943100e+00 9.144000e-02
         vertex 4.998720e+00 1.943100e+00 9.144000e-02
         vertex 4.998720e+00 1.943100e+00 2.133600e-01
      endloop
   endfacet
   facet normal 0.000000e+00 -1.000000e+00 0.000000e+00
      outer loop
         vertex 3.596640e+00 1.943100e+00 9.144000e-02
         vertex 4.998720e+00 1.943100e+00 2.133600e-01
         vertex 3.596640e+00 1.943100e+00 2.133600e-01
      endloop
   endfacet
   facet normal 1.000000e+00 0.000000e+00 0.000000e+00
      outer loop
         vertex 5.547360e+00 2.217420e+00 9.144000e-02
         vertex 5.547360e+00 1.943100e+00 9.144000e-02
         vertex 5.547360e+00 2.217420e+00 4.440892e-16
      endloop
   endfacet
   facet normal 1.000000e+00 0.000000e+00 0.000000e+00
      outer loop
         vertex 5.547360e+00 2.217420e+00 4.440892e-16
         vertex 5.547360e+00 1.943100e+00 9.144000e-02
         vertex 5.547360e+00 1.943100e+00 0.000000e+00
      endloop
   endfacet
   facet normal -0.000000e+00 1.000000e+00 0.000000e+00
      outer loop
         vertex 4.998720e+00 2.217420e+00 9.144000e-02
         vertex 5.547360e+00 2.217420e+00 9.144000e-02
         vertex 5.547360e+00 2.217420e+00 4.440892e-16
      endloop
   endfacet
   facet normal -0.000000e+00 1.000000e+00 0.000000e+00
      outer loop
         vertex 3.596640e+00 2.217420e+00 2.133600e-01
         vertex 4.998720e+00 2.217420e+00 2.133600e-01
         vertex 3.596640e+00 2.217420e+00 9.144000e-02
      endloop
   endfacet
   facet normal 0.000000e+00 1.000000e+00 0.000000e+00
      outer loop
         vertex 3.596640e+00 2.217420e+00 9.144000e-02
         vertex 4.998720e+00 2.217420e+00 2.133600e-01
         vertex 4.998720e+00 2.217420e+00 9.144000e-02
      endloop
   endfacet
   facet normal -0.000000e+00 1.000000e+00 0.000000e+00
      outer loop
         vertex 3.596640e+00 2.217420e+00 9.144000e-02
         vertex 4.998720e+00 2.217420e+00 9.144000e-02
         vertex 3.596640e+00 2.217420e+00 4.440892e-16
      endloop
   endfacet
   facet normal 0.000000e+00 1.000000e+00 0.000000e+00
      outer loop
         vertex 3.596640e+00 2.217420e+00 4.440892e-16
         vertex 4.998720e+00 2.217420e+00 9.144000e-02
         vertex 5.547360e+00 2.217420e+00 4.440892e-16
      endloop
   endfacet
   facet normal 0.000000e+00 0.000000e+00 1.000000e+00
      outer loop
         vertex 5.547360e+00 2.217420e+00 9.144000e-02
         vertex 4.998720e+00 2.217420e+00 9.144000e-02
         vertex 5.547360e+00 1.943100e+00 9.144000e-02
      endloop
   endfacet
   facet normal 0.000000e+00 0.000000e+00 1.000000e+00
      outer loop
         vertex 5.547360e+00 1.943100e+00 9.144000e-02
         vertex 4.998720e+00 2.217420e+00 9.144000e-02
         vertex 4.998720e+00 1.943100e+00 9.144000e-02
      endloop
   endfacet
   facet normal 2.698121e-16 1.618872e-15 -1.000000e+00
      outer loop
         vertex 2.773680e+00 2.080260e+00 -4.440892e-16
         vertex 3.596640e+00 2.217420e+00 0.000000e+00
         vertex 3.596640e+00 1.943100e+00 -4.440892e-16
      endloop
   endfacet
   facet normal 0.000000e+00 1.618872e-15 -1.000000e+00
      outer loop
         vertex 3.596640e+00 1.943100e+00 -4.440892e-16
         vertex 3.596640e+00 2.217420e+00 0.000000e+00
         vertex 5.547360e+00 2.217420e+00 0.000000e+00
      endloop
   endfacet
   facet normal 0.000000e+00 1.618872e-15 -1.000000e+00
      outer loop
         vertex 3.596640e+00 1.943100e+00 -4.440892e-16
         vertex 5.547360e+00 2.217420e+00 0.000000e+00
         vertex 5.547360e+00 1.943100e+00 -4.440892e-16
      endloop
   endfacet
   facet normal 1.000000e+00 0.000000e+00 -0.000000e+00
      outer loop
         vertex 4.998720e+00 2.217420e+00 9.144000e-02
         vertex 4.998720e+00 2.217420e+00 2.133600e-01
         vertex 4.998720e+00 1.943100e+00 9.144000e-02
      endloop
   endfacet
   facet normal 1.000000e+00 0.000000e+00 0.000000e+00
      outer loop
         vertex 4.998720e+00 1.943100e+00 9.144000e-02
         vertex 4.998720e+00 2.217420e+00 2.133600e-01
         vertex 4.998720e+00 1.943100e+00 2.133600e-01
      endloop
   endfacet
   facet normal 0.000000e+00 0.000000e+00 1.000000e+00
      outer loop
         vertex 4.998720e+00 1.943100e+00 2.133600e-01
         vertex 4.693920e+00 2.049780e+00 2.133600e-01
         vertex 4.572000e+00 2.049780e+00 2.133600e-01
      endloop
   endfacet
   facet normal -0.000000e+00 0.000000e+00 1.000000e+00
      outer loop
         vertex 4.693920e+00 2.049780e+00 2.133600e-01
         vertex 4.998720e+00 1.943100e+00 2.133600e-01
         vertex 4.693920e+00 2.110740e+00 2.133600e-01
      endloop
   endfacet
   facet normal -0.000000e+00 0.000000e+00 1.000000e+00
      outer loop
         vertex 4.693920e+00 2.110740e+00 2.133600e-01
         vertex 4.998720e+00 1.943100e+00 2.133600e-01
         vertex 4.998720e+00 2.217420e+00 2.133600e-01
      endloop
   endfacet
   facet normal 0.000000e+00 -0.000000e+00 1.000000e+00
      outer loop
         vertex 4.693920e+00 2.110740e+00 2.133600e-01
         vertex 4.998720e+00 2.217420e+00 2.133600e-01
         vertex 4.572000e+00 2.110740e+00 2.133600e-01
      endloop
   endfacet
   facet normal 0.000000e+00 -0.000000e+00 1.000000e+00
      outer loop
         vertex 4.572000e+00 2.110740e+00 2.133600e-01
         vertex 4.998720e+00 2.217420e+00 2.133600e-01
         vertex 3.596640e+00 2.217420e+00 2.133600e-01
      endloop
   endfacet
   facet normal 0.000000e+00 0.000000e+00 1.000000e+00
      outer loop
         vertex 4.572000e+00 2.110740e+00 2.133600e-01
         vertex 3.596640e+00 2.217420e+00 2.133600e-01
         vertex 4.572000e+00 2.049780e+00 2.133600e-01
      endloop
   endfacet
   facet normal 0.000000e+00 0.000000e+00 1.000000e+00
      outer loop
         vertex 4.572000e+00 2.049780e+00 2.133600e-01
         vertex 3.596640e+00 2.217420e+00 2.133600e-01
         vertex 3.596640e+00 1.943100e+00 2.133600e-01
      endloop
   endfacet
   facet normal 0.000000e+00 0.000000e+00 1.000000e+00
      outer loop
         vertex 4.572000e+00 2.049780e+00 2.133600e-01
         vertex 3.596640e+00 1.943100e+00 2.133600e-01
         vertex 4.998720e+00 1.943100e+00 2.133600e-01
      endloop
   endfacet
   facet normal -0.000000e+00 -1.000000e+00 -0.000000e+00
      outer loop
         vertex 4.693920e+00 2.049780e+00 3.352800e-01
         vertex 4.572000e+00 2.049780e+00 3.352800e-01
         vertex 4.693920e+00 2.049780e+00 2.133600e-01
      endloop
   endfacet
   facet normal 0.000000e+00 -1.000000e+00 0.000000e+00
      outer loop
         vertex 4.693920e+00 2.049780e+00 2.133600e-01
         vertex 4.572000e+00 2.049780e+00 3.352800e-01
         vertex 4.572000e+00 2.049780e+00 2.133600e-01
      endloop
   endfacet
   facet normal 1.000000e+00 0.000000e+00 0.000000e+00
      outer loop
         vertex 4.693920e+00 2.110740e+00 3.352800e-01
         vertex 4.693920e+00 2.049780e+00 3.352800e-01
         vertex 4.693920e+00 2.110740e+00 2.133600e-01
      endloop
   endfacet
   facet normal 1.000000e+00 0.000000e+00 0.000000e+00
      outer loop
         vertex 4.693920e+00 2.110740e+00 2.133600e-01
         vertex 4.693920e+00 2.049780e+00 3.352800e-01
         vertex 4.693920e+00 2.049780e+00 2.133600e-01
      endloop
   endfacet
   facet normal -0.000000e+00 1.000000e+00 0.000000e+00
      outer loop
         vertex 4.572000e+00 2.110740e+00 3.352800e-01
         vertex 4.693920e+00 2.110740e+00 3.352800e-01
         vertex 4.572000e+00 2.110740e+00 2.133600e-01
      endloop
   endfacet
   facet normal 0.000000e+00 1.000000e+00 0.000000e+00
      outer loop
         vertex 4.572000e+00 2.110740e+00 2.133600e-01
         vertex 4.693920e+00 2.110740e+00 3.352800e-01
         vertex 4.693920e+00 2.110740e+00 2.133600e-01
      endloop
   endfacet
   facet normal -1.000000e+00 0.000000e+00 0.000000e+00
      outer loop
         vertex 4.572000e+00 2.049780e+00 3.352800e-01
         vertex 4.572000e+00 2.110740e+00 3.352800e-01
         vertex 4.572000e+00 2.049780e+00 2.133600e-01
      endloop
   endfacet
   facet normal -1.000000e+00 0.000000e+00 0.000000e+00
      outer loop
         vertex 4.572000e+00 2.049780e+00 2.133600e-01
         vertex 4.572000e+00 2.110740e+00 3.352800e-01
         vertex 4.572000e+00 2.110740e+00 2.133600e-01
      endloop
   endfacet
   facet normal 0.000000e+00 -0.000000e+00 1.000000e+00
      outer loop
         vertex 4.693920e+00 2.049780e+00 3.352800e-01
         vertex 4.693920e+00 2.110740e+00 3.352800e-01
         vertex 4.572000e+00 2.049780e+00 3.352800e-01
      endloop
   endfacet
   facet normal 0.000000e+00 0.000000e+00 1.000000e+00
      outer loop
         vertex 4.572000e+00 2.049780e+00 3.352800e-01
         vertex 4.693920e+00 2.110740e+00 3.352800e-01
         vertex 4.572000e+00 2.110740e+00 3.352800e-01
      endloop
   endfacet
   facet normal -1.000000e+00 0.000000e+00 0.000000e+00
      outer loop
         vertex 3.596640e+00 1.943100e+00 2.133600e-01
         vertex 3.596640e+00 2.217420e+00 2.133600e-01
         vertex 3.596640e+00 1.943100e+00 9.144000e-02
      endloop
   endfacet
   facet normal -1.000000e+00 0.000000e+00 0.000000e+00
      outer loop
         vertex 3.596640e+00 1.943100e+00 9.144000e-02
         vertex 3.596640e+00 2.217420e+00 2.133600e-01
         vertex 3.596640e+00 2.217420e+00 9.144000e-02
      endloop
   endfacet
   facet normal -1.643990e-01 -9.863939e-01 -0.000000e+00
      outer loop
         vertex 3.596640e+00 1.943100e+00 9.144000e-02
         vertex 2.773680e+00 2.080260e+00 9.144000e-02
         vertex 3.596640e+00 1.943100e+00 0.000000e+00
      endloop
   endfacet
   facet normal -1.643990e-01 -9.863939e-01 0.000000e+00
      outer loop
         vertex 3.596640e+00 1.943100e+00 0.000000e+00
         vertex 2.773680e+00 2.080260e+00 9.144000e-02
         vertex 2.773680e+00 2.080260e+00 4.440892e-16
      endloop
   endfacet
   facet normal -1.643990e-01 9.863939e-01 0.000000e+00
      outer loop
         vertex 2.773680e+00 2.080260e+00 9.144000e-02
         vertex 3.596640e+00 2.217420e+00 9.144000e-02
         vertex 2.773680e+00 2.080260e+00 4.440892e-16
      endloop
   endfacet
   facet normal -1.643990e-01 9.863939e-01 0.000000e+00
      outer loop
         vertex 2.773680e+00 2.080260e+00 4.440892e-16
         vertex 3.596640e+00 2.217420e+00 9.144000e-02
         vertex 3.596640e+00 2.217420e+00 4.440892e-16
      endloop
   endfacet
   facet normal 0.000000e+00 -0.000000e+00 1.000000e+00
      outer loop
         vertex 3.596640e+00 1.943100e+00 9.144000e-02
         vertex 3.596640e+00 2.217420e+00 9.144000e-02
         vertex 2.773680e+00 2.080260e+00 9.144000e-02
      endloop
   endfacet
endsolid