solid SFS2_STL_ASCII_updatedorigin
   facet normal 0.000000e+00 1.000000e+00 0.000000e+00
      outer loop
         vertex 1.112520e+02 1.066800e+01 6.858000e+00
         vertex 9.601200e+01 1.066800e+01 1.524000e+00
         vertex 8.991600e+01 1.066800e+01 1.524000e+00
      endloop
   endfacet
   facet normal -0.000000e+00 1.000000e+00 0.000000e+00
      outer loop
         vertex 9.601200e+01 1.066800e+01 1.524000e+00
         vertex 1.112520e+02 1.066800e+01 6.858000e+00
         vertex 9.601200e+01 1.066800e+01 -1.524000e+00
      endloop
   endfacet
   facet normal -0.000000e+00 1.000000e+00 0.000000e+00
      outer loop
         vertex 9.601200e+01 1.066800e+01 -1.524000e+00
         vertex 1.112520e+02 1.066800e+01 6.858000e+00
         vertex 1.112520e+02 1.066800e+01 -6.858000e+00
      endloop
   endfacet
   facet normal 0.000000e+00 1.000000e+00 0.000000e+00
      outer loop
         vertex 9.601200e+01 1.066800e+01 -1.524000e+00
         vertex 1.112520e+02 1.066800e+01 -6.858000e+00
         vertex 8.991600e+01 1.066800e+01 -1.524000e+00
      endloop
   endfacet
   facet normal 0.000000e+00 1.000000e+00 0.000000e+00
      outer loop
         vertex 8.991600e+01 1.066800e+01 -1.524000e+00
         vertex 1.112520e+02 1.066800e+01 -6.858000e+00
         vertex 4.114800e+01 1.066800e+01 -6.858000e+00
      endloop
   endfacet
   facet normal 0.000000e+00 1.000000e+00 -0.000000e+00
      outer loop
         vertex 8.991600e+01 1.066800e+01 -1.524000e+00
         vertex 4.114800e+01 1.066800e+01 -6.858000e+00
         vertex 8.991600e+01 1.066800e+01 1.524000e+00
      endloop
   endfacet
   facet normal 0.000000e+00 1.000000e+00 0.000000e+00
      outer loop
         vertex 8.991600e+01 1.066800e+01 1.524000e+00
         vertex 4.114800e+01 1.066800e+01 -6.858000e+00
         vertex 4.114800e+01 1.066800e+01 6.858000e+00
      endloop
   endfacet
   facet normal 0.000000e+00 1.000000e+00 -0.000000e+00
      outer loop
         vertex 8.991600e+01 1.066800e+01 1.524000e+00
         vertex 4.114800e+01 1.066800e+01 6.858000e+00
         vertex 1.112520e+02 1.066800e+01 6.858000e+00
      endloop
   endfacet
   facet normal 0.000000e+00 1.000000e+00 -0.000000e+00
      outer loop
         vertex 4.114800e+01 4.572000e+00 -6.858000e+00
         vertex 0.000000e+00 4.572000e+00 0.000000e+00
         vertex 4.114800e+01 4.572000e+00 6.858000e+00
      endloop
   endfacet
   facet normal -1.643990e-01 -0.000000e+00 -9.863939e-01
      outer loop
         vertex 0.000000e+00 4.572000e+00 0.000000e+00
         vertex 4.114800e+01 4.572000e+00 -6.858000e+00
         vertex 0.000000e+00 -1.776357e-15 0.000000e+00
      endloop
   endfacet
   facet normal -1.643990e-01 0.000000e+00 -9.863939e-01
      outer loop
         vertex 0.000000e+00 -1.776357e-15 0.000000e+00
         vertex 4.114800e+01 4.572000e+00 -6.858000e+00
         vertex 4.114800e+01 -1.776357e-15 -6.858000e+00
      endloop
   endfacet
   facet normal -1.643990e-01 0.000000e+00 9.863939e-01
      outer loop
         vertex 4.114800e+01 4.572000e+00 6.858000e+00
         vertex 0.000000e+00 4.572000e+00 0.000000e+00
         vertex 4.114800e+01 -1.776357e-15 6.858000e+00
      endloop
   endfacet
   facet normal -1.643990e-01 0.000000e+00 9.863939e-01
      outer loop
         vertex 4.114800e+01 -1.776357e-15 6.858000e+00
         vertex 0.000000e+00 4.572000e+00 0.000000e+00
         vertex 0.000000e+00 -1.776357e-15 0.000000e+00
      endloop
   endfacet
   facet normal 0.000000e+00 0.000000e+00 1.000000e+00
      outer loop
         vertex 4.114800e+01 0.000000e+00 6.858000e+00
         vertex 1.386840e+02 0.000000e+00 6.858000e+00
         vertex 1.112520e+02 4.572000e+00 6.858000e+00
      endloop
   endfacet
   facet normal -0.000000e+00 0.000000e+00 1.000000e+00
      outer loop
         vertex 1.112520e+02 4.572000e+00 6.858000e+00
         vertex 1.386840e+02 0.000000e+00 6.858000e+00
         vertex 1.386840e+02 4.572000e+00 6.858000e+00
      endloop
   endfacet
   facet normal 0.000000e+00 0.000000e+00 1.000000e+00
      outer loop
         vertex 4.114800e+01 0.000000e+00 6.858000e+00
         vertex 1.112520e+02 4.572000e+00 6.858000e+00
         vertex 4.114800e+01 4.572000e+00 6.858000e+00
      endloop
   endfacet
   facet normal 0.000000e+00 0.000000e+00 1.000000e+00
      outer loop
         vertex 4.114800e+01 4.572000e+00 6.858000e+00
         vertex 1.112520e+02 4.572000e+00 6.858000e+00
         vertex 1.112520e+02 1.066800e+01 6.858000e+00
      endloop
   endfacet
   facet normal 0.000000e+00 0.000000e+00 1.000000e+00
      outer loop
         vertex 4.114800e+01 4.572000e+00 6.858000e+00
         vertex 1.112520e+02 1.066800e+01 6.858000e+00
         vertex 4.114800e+01 1.066800e+01 6.858000e+00
      endloop
   endfacet
   facet normal 1.000000e+00 0.000000e+00 -0.000000e+00
      outer loop
         vertex 1.386840e+02 4.572000e+00 -6.858000e+00
         vertex 1.386840e+02 4.572000e+00 6.858000e+00
         vertex 1.386840e+02 0.000000e+00 -6.858000e+00
      endloop
   endfacet
   facet normal 1.000000e+00 0.000000e+00 0.000000e+00
      outer loop
         vertex 1.386840e+02 0.000000e+00 -6.858000e+00
         vertex 1.386840e+02 4.572000e+00 6.858000e+00
         vertex 1.386840e+02 0.000000e+00 6.858000e+00
      endloop
   endfacet
   facet normal 0.000000e+00 0.000000e+00 -1.000000e+00
      outer loop
         vertex 1.112520e+02 4.572000e+00 -6.858000e+00
         vertex 1.386840e+02 4.572000e+00 -6.858000e+00
         vertex 1.386840e+02 0.000000e+00 -6.858000e+00
      endloop
   endfacet
   facet normal 0.000000e+00 0.000000e+00 -1.000000e+00
      outer loop
         vertex 4.114800e+01 1.066800e+01 -6.858000e+00
         vertex 1.112520e+02 1.066800e+01 -6.858000e+00
         vertex 4.114800e+01 4.572000e+00 -6.858000e+00
      endloop
   endfacet
   facet normal 0.000000e+00 0.000000e+00 -1.000000e+00
      outer loop
         vertex 4.114800e+01 4.572000e+00 -6.858000e+00
         vertex 1.112520e+02 1.066800e+01 -6.858000e+00
         vertex 1.112520e+02 4.572000e+00 -6.858000e+00
      endloop
   endfacet
   facet normal 0.000000e+00 0.000000e+00 -1.000000e+00
      outer loop
         vertex 4.114800e+01 4.572000e+00 -6.858000e+00
         vertex 1.112520e+02 4.572000e+00 -6.858000e+00
         vertex 4.114800e+01 0.000000e+00 -6.858000e+00
      endloop
   endfacet
   facet normal 0.000000e+00 0.000000e+00 -1.000000e+00
      outer loop
         vertex 4.114800e+01 0.000000e+00 -6.858000e+00
         vertex 1.112520e+02 4.572000e+00 -6.858000e+00
         vertex 1.386840e+02 0.000000e+00 -6.858000e+00
      endloop
   endfacet
   facet normal 0.000000e+00 1.000000e+00 0.000000e+00
      outer loop
         vertex 1.386840e+02 4.572000e+00 6.858000e+00
         vertex 1.386840e+02 4.572000e+00 -6.858000e+00
         vertex 1.112520e+02 4.572000e+00 6.858000e+00
      endloop
   endfacet
   facet normal 0.000000e+00 1.000000e+00 0.000000e+00
      outer loop
         vertex 1.112520e+02 4.572000e+00 6.858000e+00
         vertex 1.386840e+02 4.572000e+00 -6.858000e+00
         vertex 1.112520e+02 4.572000e+00 -6.858000e+00
      endloop
   endfacet
   facet normal 0.000000e+00 -1.000000e+00 0.000000e+00
      outer loop
         vertex 1.386840e+02 0.000000e+00 -6.858000e+00
         vertex 1.386840e+02 0.000000e+00 6.858000e+00
         vertex 4.114800e+01 0.000000e+00 -6.858000e+00
      endloop
   endfacet
   facet normal 0.000000e+00 -1.000000e+00 0.000000e+00
      outer loop
         vertex 4.114800e+01 0.000000e+00 -6.858000e+00
         vertex 1.386840e+02 0.000000e+00 6.858000e+00
         vertex 4.114800e+01 0.000000e+00 6.858000e+00
      endloop
   endfacet
   facet normal 0.000000e+00 -1.000000e+00 0.000000e+00
      outer loop
         vertex 4.114800e+01 0.000000e+00 -6.858000e+00
         vertex 4.114800e+01 0.000000e+00 6.858000e+00
         vertex 0.000000e+00 0.000000e+00 0.000000e+00
      endloop
   endfacet
   facet normal -1.000000e+00 -0.000000e+00 -0.000000e+00
      outer loop
         vertex 4.114800e+01 1.066800e+01 6.858000e+00
         vertex 4.114800e+01 1.066800e+01 -6.858000e+00
         vertex 4.114800e+01 4.572000e+00 6.858000e+00
      endloop
   endfacet
   facet normal -1.000000e+00 0.000000e+00 0.000000e+00
      outer loop
         vertex 4.114800e+01 4.572000e+00 6.858000e+00
         vertex 4.114800e+01 1.066800e+01 -6.858000e+00
         vertex 4.114800e+01 4.572000e+00 -6.858000e+00
      endloop
   endfacet
   facet normal 1.000000e+00 0.000000e+00 -0.000000e+00
      outer loop
         vertex 1.112520e+02 1.066800e+01 -6.858000e+00
         vertex 1.112520e+02 1.066800e+01 6.858000e+00
         vertex 1.112520e+02 4.572000e+00 -6.858000e+00
      endloop
   endfacet
   facet normal 1.000000e+00 0.000000e+00 0.000000e+00
      outer loop
         vertex 1.112520e+02 4.572000e+00 -6.858000e+00
         vertex 1.112520e+02 1.066800e+01 6.858000e+00
         vertex 1.112520e+02 4.572000e+00 6.858000e+00
      endloop
   endfacet
   facet normal 1.000000e+00 0.000000e+00 -0.000000e+00
      outer loop
         vertex 9.601200e+01 1.676400e+01 -1.524000e+00
         vertex 9.601200e+01 1.676400e+01 1.524000e+00
         vertex 9.601200e+01 1.066800e+01 -1.524000e+00
      endloop
   endfacet
   facet normal 1.000000e+00 0.000000e+00 0.000000e+00
      outer loop
         vertex 9.601200e+01 1.066800e+01 -1.524000e+00
         vertex 9.601200e+01 1.676400e+01 1.524000e+00
         vertex 9.601200e+01 1.066800e+01 1.524000e+00
      endloop
   endfacet
   facet normal 0.000000e+00 0.000000e+00 -1.000000e+00
      outer loop
         vertex 8.991600e+01 1.676400e+01 -1.524000e+00
         vertex 9.601200e+01 1.676400e+01 -1.524000e+00
         vertex 8.991600e+01 1.066800e+01 -1.524000e+00
      endloop
   endfacet
   facet normal 0.000000e+00 0.000000e+00 -1.000000e+00
      outer loop
         vertex 8.991600e+01 1.066800e+01 -1.524000e+00
         vertex 9.601200e+01 1.676400e+01 -1.524000e+00
         vertex 9.601200e+01 1.066800e+01 -1.524000e+00
      endloop
   endfacet
   facet normal -1.000000e+00 -0.000000e+00 -0.000000e+00
      outer loop
         vertex 8.991600e+01 1.676400e+01 1.524000e+00
         vertex 8.991600e+01 1.676400e+01 -1.524000e+00
         vertex 8.991600e+01 1.066800e+01 1.524000e+00
      endloop
   endfacet
   facet normal -1.000000e+00 0.000000e+00 0.000000e+00
      outer loop
         vertex 8.991600e+01 1.066800e+01 1.524000e+00
         vertex 8.991600e+01 1.676400e+01 -1.524000e+00
         vertex 8.991600e+01 1.066800e+01 -1.524000e+00
      endloop
   endfacet
   facet normal 0.000000e+00 0.000000e+00 1.000000e+00
      outer loop
         vertex 9.601200e+01 1.676400e+01 1.524000e+00
         vertex 8.991600e+01 1.676400e+01 1.524000e+00
         vertex 9.601200e+01 1.066800e+01 1.524000e+00
      endloop
   endfacet
   facet normal 0.000000e+00 0.000000e+00 1.000000e+00
      outer loop
         vertex 9.601200e+01 1.066800e+01 1.524000e+00
         vertex 8.991600e+01 1.676400e+01 1.524000e+00
         vertex 8.991600e+01 1.066800e+01 1.524000e+00
      endloop
   endfacet
   facet normal 0.000000e+00 1.000000e+00 0.000000e+00
      outer loop
         vertex 8.991600e+01 1.676400e+01 -1.524000e+00
         vertex 8.991600e+01 1.676400e+01 1.524000e+00
         vertex 9.601200e+01 1.676400e+01 -1.524000e+00
      endloop
   endfacet
   facet normal 0.000000e+00 1.000000e+00 -0.000000e+00
      outer loop
         vertex 9.601200e+01 1.676400e+01 -1.524000e+00
         vertex 8.991600e+01 1.676400e+01 1.524000e+00
         vertex 9.601200e+01 1.676400e+01 1.524000e+00
      endloop
   endfacet
endsolid