solid sfs2_no_out_surface_short_fluid_smaller_v2
   facet normal 0.000000e+00 0.000000e+00 1.000000e+00
      outer loop
         vertex 4.604425e-01 6.938894e-18 2.323830e-01
         vertex 8.754894e-01 6.938894e-18 2.323830e-01
         vertex 7.587575e-01 1.945532e-02 2.323830e-01
      endloop
   endfacet
   facet normal -0.000000e+00 0.000000e+00 1.000000e+00
      outer loop
         vertex 7.587575e-01 1.945532e-02 2.323830e-01
         vertex 8.754894e-01 6.938894e-18 2.323830e-01
         vertex 8.754894e-01 1.945532e-02 2.323830e-01
      endloop
   endfacet
   facet normal 0.000000e+00 0.000000e+00 1.000000e+00
      outer loop
         vertex 4.604425e-01 6.938894e-18 2.323830e-01
         vertex 7.587575e-01 1.945532e-02 2.323830e-01
         vertex 4.604425e-01 1.945532e-02 2.323830e-01
      endloop
   endfacet
   facet normal 0.000000e+00 0.000000e+00 1.000000e+00
      outer loop
         vertex 4.604425e-01 1.945532e-02 2.323830e-01
         vertex 7.587575e-01 1.945532e-02 2.323830e-01
         vertex 7.587575e-01 4.539574e-02 2.323830e-01
      endloop
   endfacet
   facet normal 0.000000e+00 0.000000e+00 1.000000e+00
      outer loop
         vertex 4.604425e-01 1.945532e-02 2.323830e-01
         vertex 7.587575e-01 4.539574e-02 2.323830e-01
         vertex 4.604425e-01 4.539574e-02 2.323830e-01
      endloop
   endfacet
   facet normal 1.000000e+00 0.000000e+00 -0.000000e+00
      outer loop
         vertex 8.754894e-01 1.945532e-02 1.740170e-01
         vertex 8.754894e-01 1.945532e-02 2.323830e-01
         vertex 8.754894e-01 0.000000e+00 1.740170e-01
      endloop
   endfacet
   facet normal 1.000000e+00 0.000000e+00 0.000000e+00
      outer loop
         vertex 8.754894e-01 0.000000e+00 1.740170e-01
         vertex 8.754894e-01 1.945532e-02 2.323830e-01
         vertex 8.754894e-01 0.000000e+00 2.323830e-01
      endloop
   endfacet
   facet normal 0.000000e+00 0.000000e+00 -1.000000e+00
      outer loop
         vertex 7.587575e-01 1.945532e-02 1.740170e-01
         vertex 8.754894e-01 1.945532e-02 1.740170e-01
         vertex 8.754894e-01 6.938894e-18 1.740170e-01
      endloop
   endfacet
   facet normal 0.000000e+00 0.000000e+00 -1.000000e+00
      outer loop
         vertex 4.604425e-01 4.539574e-02 1.740170e-01
         vertex 7.587575e-01 4.539574e-02 1.740170e-01
         vertex 4.604425e-01 1.945532e-02 1.740170e-01
      endloop
   endfacet
   facet normal 0.000000e+00 0.000000e+00 -1.000000e+00
      outer loop
         vertex 4.604425e-01 1.945532e-02 1.740170e-01
         vertex 7.587575e-01 4.539574e-02 1.740170e-01
         vertex 7.587575e-01 1.945532e-02 1.740170e-01
      endloop
   endfacet
   facet normal 0.000000e+00 0.000000e+00 -1.000000e+00
      outer loop
         vertex 4.604425e-01 1.945532e-02 1.740170e-01
         vertex 7.587575e-01 1.945532e-02 1.740170e-01
         vertex 4.604425e-01 6.938894e-18 1.740170e-01
      endloop
   endfacet
   facet normal 0.000000e+00 0.000000e+00 -1.000000e+00
      outer loop
         vertex 4.604425e-01 6.938894e-18 1.740170e-01
         vertex 7.587575e-01 1.945532e-02 1.740170e-01
         vertex 8.754894e-01 6.938894e-18 1.740170e-01
      endloop
   endfacet
   facet normal 0.000000e+00 1.000000e+00 -0.000000e+00
      outer loop
         vertex 8.754894e-01 1.945532e-02 1.740170e-01
         vertex 7.587575e-01 1.945532e-02 1.740170e-01
         vertex 8.754894e-01 1.945532e-02 2.323830e-01
      endloop
   endfacet
   facet normal 0.000000e+00 1.000000e+00 0.000000e+00
      outer loop
         vertex 8.754894e-01 1.945532e-02 2.323830e-01
         vertex 7.587575e-01 1.945532e-02 1.740170e-01
         vertex 7.587575e-01 1.945532e-02 2.323830e-01
      endloop
   endfacet
   facet normal 0.000000e+00 -1.000000e+00 0.000000e+00
      outer loop
         vertex 2.853447e-01 0.000000e+00 2.032000e-01
         vertex 4.604425e-01 0.000000e+00 1.740170e-01
         vertex 4.604425e-01 0.000000e+00 2.323830e-01
      endloop
   endfacet
   facet normal 0.000000e+00 -1.000000e+00 0.000000e+00
      outer loop
         vertex 4.604425e-01 0.000000e+00 2.323830e-01
         vertex 4.604425e-01 0.000000e+00 1.740170e-01
         vertex 8.754894e-01 0.000000e+00 1.740170e-01
      endloop
   endfacet
   facet normal 0.000000e+00 -1.000000e+00 0.000000e+00
      outer loop
         vertex 4.604425e-01 0.000000e+00 2.323830e-01
         vertex 8.754894e-01 0.000000e+00 1.740170e-01
         vertex 8.754894e-01 0.000000e+00 2.323830e-01
      endloop
   endfacet
   facet normal 1.000000e+00 0.000000e+00 0.000000e+00
      outer loop
         vertex 7.587575e-01 1.945532e-02 1.740170e-01
         vertex 7.587575e-01 4.539574e-02 1.740170e-01
         vertex 7.587575e-01 1.945532e-02 2.323830e-01
      endloop
   endfacet
   facet normal 1.000000e+00 -0.000000e+00 0.000000e+00
      outer loop
         vertex 7.587575e-01 1.945532e-02 2.323830e-01
         vertex 7.587575e-01 4.539574e-02 1.740170e-01
         vertex 7.587575e-01 4.539574e-02 2.323830e-01
      endloop
   endfacet
   facet normal 0.000000e+00 1.000000e+00 0.000000e+00
      outer loop
         vertex 7.587575e-01 4.539574e-02 2.323830e-01
         vertex 6.939064e-01 4.539574e-02 2.096851e-01
         vertex 6.679659e-01 4.539574e-02 2.096851e-01
      endloop
   endfacet
   facet normal -0.000000e+00 1.000000e+00 0.000000e+00
      outer loop
         vertex 6.939064e-01 4.539574e-02 2.096851e-01
         vertex 7.587575e-01 4.539574e-02 2.323830e-01
         vertex 6.939064e-01 4.539574e-02 1.967149e-01
      endloop
   endfacet
   facet normal -0.000000e+00 1.000000e+00 0.000000e+00
      outer loop
         vertex 6.939064e-01 4.539574e-02 1.967149e-01
         vertex 7.587575e-01 4.539574e-02 2.323830e-01
         vertex 7.587575e-01 4.539574e-02 1.740170e-01
      endloop
   endfacet
   facet normal 0.000000e+00 1.000000e+00 0.000000e+00
      outer loop
         vertex 6.939064e-01 4.539574e-02 1.967149e-01
         vertex 7.587575e-01 4.539574e-02 1.740170e-01
         vertex 6.679659e-01 4.539574e-02 1.967149e-01
      endloop
   endfacet
   facet normal 0.000000e+00 1.000000e+00 0.000000e+00
      outer loop
         vertex 6.679659e-01 4.539574e-02 1.967149e-01
         vertex 7.587575e-01 4.539574e-02 1.740170e-01
         vertex 4.604425e-01 4.539574e-02 1.740170e-01
      endloop
   endfacet
   facet normal 0.000000e+00 1.000000e+00 -0.000000e+00
      outer loop
         vertex 6.679659e-01 4.539574e-02 1.967149e-01
         vertex 4.604425e-01 4.539574e-02 1.740170e-01
         vertex 6.679659e-01 4.539574e-02 2.096851e-01
      endloop
   endfacet
   facet normal 0.000000e+00 1.000000e+00 0.000000e+00
      outer loop
         vertex 6.679659e-01 4.539574e-02 2.096851e-01
         vertex 4.604425e-01 4.539574e-02 1.740170e-01
         vertex 4.604425e-01 4.539574e-02 2.323830e-01
      endloop
   endfacet
   facet normal 0.000000e+00 1.000000e+00 -0.000000e+00
      outer loop
         vertex 6.679659e-01 4.539574e-02 2.096851e-01
         vertex 4.604425e-01 4.539574e-02 2.323830e-01
         vertex 7.587575e-01 4.539574e-02 2.323830e-01
      endloop
   endfacet
   facet normal 0.000000e+00 0.000000e+00 1.000000e+00
      outer loop
         vertex 6.939064e-01 7.133617e-02 2.096851e-01
         vertex 6.679659e-01 7.133617e-02 2.096851e-01
         vertex 6.939064e-01 4.539574e-02 2.096851e-01
      endloop
   endfacet
   facet normal 0.000000e+00 0.000000e+00 1.000000e+00
      outer loop
         vertex 6.939064e-01 4.539574e-02 2.096851e-01
         vertex 6.679659e-01 7.133617e-02 2.096851e-01
         vertex 6.679659e-01 4.539574e-02 2.096851e-01
      endloop
   endfacet
   facet normal 1.000000e+00 0.000000e+00 -0.000000e+00
      outer loop
         vertex 6.939064e-01 7.133617e-02 1.967149e-01
         vertex 6.939064e-01 7.133617e-02 2.096851e-01
         vertex 6.939064e-01 4.539574e-02 1.967149e-01
      endloop
   endfacet
   facet normal 1.000000e+00 0.000000e+00 0.000000e+00
      outer loop
         vertex 6.939064e-01 4.539574e-02 1.967149e-01
         vertex 6.939064e-01 7.133617e-02 2.096851e-01
         vertex 6.939064e-01 4.539574e-02 2.096851e-01
      endloop
   endfacet
   facet normal 0.000000e+00 0.000000e+00 -1.000000e+00
      outer loop
         vertex 6.679659e-01 7.133617e-02 1.967149e-01
         vertex 6.939064e-01 7.133617e-02 1.967149e-01
         vertex 6.679659e-01 4.539574e-02 1.967149e-01
      endloop
   endfacet
   facet normal 0.000000e+00 0.000000e+00 -1.000000e+00
      outer loop
         vertex 6.679659e-01 4.539574e-02 1.967149e-01
         vertex 6.939064e-01 7.133617e-02 1.967149e-01
         vertex 6.939064e-01 4.539574e-02 1.967149e-01
      endloop
   endfacet
   facet normal -1.000000e+00 -0.000000e+00 -0.000000e+00
      outer loop
         vertex 6.679659e-01 7.133617e-02 2.096851e-01
         vertex 6.679659e-01 7.133617e-02 1.967149e-01
         vertex 6.679659e-01 4.539574e-02 2.096851e-01
      endloop
   endfacet
   facet normal -1.000000e+00 0.000000e+00 0.000000e+00
      outer loop
         vertex 6.679659e-01 4.539574e-02 2.096851e-01
         vertex 6.679659e-01 7.133617e-02 1.967149e-01
         vertex 6.679659e-01 4.539574e-02 1.967149e-01
      endloop
   endfacet
   facet normal 0.000000e+00 1.000000e+00 0.000000e+00
      outer loop
         vertex 6.939064e-01 7.133617e-02 2.096851e-01
         vertex 6.939064e-01 7.133617e-02 1.967149e-01
         vertex 6.679659e-01 7.133617e-02 2.096851e-01
      endloop
   endfacet
   facet normal 0.000000e+00 1.000000e+00 0.000000e+00
      outer loop
         vertex 6.679659e-01 7.133617e-02 2.096851e-01
         vertex 6.939064e-01 7.133617e-02 1.967149e-01
         vertex 6.679659e-01 7.133617e-02 1.967149e-01
      endloop
   endfacet
   facet normal -1.000000e+00 -0.000000e+00 -0.000000e+00
      outer loop
         vertex 4.604425e-01 4.539574e-02 2.323830e-01
         vertex 4.604425e-01 4.539574e-02 1.740170e-01
         vertex 4.604425e-01 1.945532e-02 2.323830e-01
      endloop
   endfacet
   facet normal -1.000000e+00 0.000000e+00 0.000000e+00
      outer loop
         vertex 4.604425e-01 1.945532e-02 2.323830e-01
         vertex 4.604425e-01 4.539574e-02 1.740170e-01
         vertex 4.604425e-01 1.945532e-02 1.740170e-01
      endloop
   endfacet
   facet normal -1.643990e-01 0.000000e+00 9.863939e-01
      outer loop
         vertex 4.604425e-01 1.945532e-02 2.323830e-01
         vertex 2.853447e-01 1.945532e-02 2.032000e-01
         vertex 4.604425e-01 0.000000e+00 2.323830e-01
      endloop
   endfacet
   facet normal -1.643990e-01 0.000000e+00 9.863939e-01
      outer loop
         vertex 4.604425e-01 0.000000e+00 2.323830e-01
         vertex 2.853447e-01 1.945532e-02 2.032000e-01
         vertex 2.853447e-01 0.000000e+00 2.032000e-01
      endloop
   endfacet
   facet normal -1.643990e-01 -0.000000e+00 -9.863939e-01
      outer loop
         vertex 2.853447e-01 1.945532e-02 2.032000e-01
         vertex 4.604425e-01 1.945532e-02 1.740170e-01
         vertex 2.853447e-01 0.000000e+00 2.032000e-01
      endloop
   endfacet
   facet normal -1.643990e-01 0.000000e+00 -9.863939e-01
      outer loop
         vertex 2.853447e-01 0.000000e+00 2.032000e-01
         vertex 4.604425e-01 1.945532e-02 1.740170e-01
         vertex 4.604425e-01 0.000000e+00 1.740170e-01
      endloop
   endfacet
   facet normal 0.000000e+00 1.000000e+00 0.000000e+00
      outer loop
         vertex 4.604425e-01 1.945532e-02 2.323830e-01
         vertex 4.604425e-01 1.945532e-02 1.740170e-01
         vertex 2.853447e-01 1.945532e-02 2.032000e-01
      endloop
   endfacet
endsolid