solid 1_90_scale_leishman_sfs2_no_out_surface_long_fluid_15width_4totlength_2_ship_1
   facet normal 0.000000e+00 -1.000000e+00 0.000000e+00
      outer loop
         vertex 3.537200e+00 1.078800e+00 0.000000e+00
         vertex 4.620934e+00 1.078800e+00 0.000000e+00
         vertex 4.316133e+00 1.078800e+00 5.080000e-02
      endloop
   endfacet
   facet normal 0.000000e+00 -1.000000e+00 0.000000e+00
      outer loop
         vertex 4.316133e+00 1.078800e+00 5.080000e-02
         vertex 4.620934e+00 1.078800e+00 0.000000e+00
         vertex 4.620934e+00 1.078800e+00 5.080000e-02
      endloop
   endfacet
   facet normal 0.000000e+00 -1.000000e+00 0.000000e+00
      outer loop
         vertex 3.537200e+00 1.078800e+00 0.000000e+00
         vertex 4.316133e+00 1.078800e+00 5.080000e-02
         vertex 3.537200e+00 1.078800e+00 5.080000e-02
      endloop
   endfacet
   facet normal 0.000000e+00 -1.000000e+00 0.000000e+00
      outer loop
         vertex 3.537200e+00 1.078800e+00 5.080000e-02
         vertex 4.316133e+00 1.078800e+00 5.080000e-02
         vertex 4.316133e+00 1.078800e+00 1.185333e-01
      endloop
   endfacet
   facet normal 0.000000e+00 -1.000000e+00 0.000000e+00
      outer loop
         vertex 3.537200e+00 1.078800e+00 5.080000e-02
         vertex 4.316133e+00 1.078800e+00 1.185333e-01
         vertex 3.537200e+00 1.078800e+00 1.185333e-01
      endloop
   endfacet
   facet normal 1.000000e+00 0.000000e+00 0.000000e+00
      outer loop
         vertex 4.620934e+00 1.231200e+00 5.080000e-02
         vertex 4.620934e+00 1.078800e+00 5.080000e-02
         vertex 4.620934e+00 1.231200e+00 2.220446e-16
      endloop
   endfacet
   facet normal 1.000000e+00 0.000000e+00 0.000000e+00
      outer loop
         vertex 4.620934e+00 1.231200e+00 2.220446e-16
         vertex 4.620934e+00 1.078800e+00 5.080000e-02
         vertex 4.620934e+00 1.078800e+00 0.000000e+00
      endloop
   endfacet
   facet normal -0.000000e+00 1.000000e+00 0.000000e+00
      outer loop
         vertex 4.316133e+00 1.231200e+00 5.080000e-02
         vertex 4.620934e+00 1.231200e+00 5.080000e-02
         vertex 4.620934e+00 1.231200e+00 2.220446e-16
      endloop
   endfacet
   facet normal -0.000000e+00 1.000000e+00 0.000000e+00
      outer loop
         vertex 3.537200e+00 1.231200e+00 1.185333e-01
         vertex 4.316133e+00 1.231200e+00 1.185333e-01
         vertex 3.537200e+00 1.231200e+00 5.080000e-02
      endloop
   endfacet
   facet normal 0.000000e+00 1.000000e+00 0.000000e+00
      outer loop
         vertex 3.537200e+00 1.231200e+00 5.080000e-02
         vertex 4.316133e+00 1.231200e+00 1.185333e-01
         vertex 4.316133e+00 1.231200e+00 5.080000e-02
      endloop
   endfacet
   facet normal -0.000000e+00 1.000000e+00 0.000000e+00
      outer loop
         vertex 3.537200e+00 1.231200e+00 5.080000e-02
         vertex 4.316133e+00 1.231200e+00 5.080000e-02
         vertex 3.537200e+00 1.231200e+00 2.220446e-16
      endloop
   endfacet
   facet normal 0.000000e+00 1.000000e+00 0.000000e+00
      outer loop
         vertex 3.537200e+00 1.231200e+00 2.220446e-16
         vertex 4.316133e+00 1.231200e+00 5.080000e-02
         vertex 4.620934e+00 1.231200e+00 2.220446e-16
      endloop
   endfacet
   facet normal 0.000000e+00 0.000000e+00 1.000000e+00
      outer loop
         vertex 4.620934e+00 1.231200e+00 5.080000e-02
         vertex 4.316133e+00 1.231200e+00 5.080000e-02
         vertex 4.620934e+00 1.078800e+00 5.080000e-02
      endloop
   endfacet
   facet normal 0.000000e+00 0.000000e+00 1.000000e+00
      outer loop
         vertex 4.620934e+00 1.078800e+00 5.080000e-02
         vertex 4.316133e+00 1.231200e+00 5.080000e-02
         vertex 4.316133e+00 1.078800e+00 5.080000e-02
      endloop
   endfacet
   facet normal 0.000000e+00 1.456985e-15 -1.000000e+00
      outer loop
         vertex 4.620934e+00 1.231200e+00 0.000000e+00
         vertex 4.620934e+00 1.078800e+00 -2.220446e-16
         vertex 3.537200e+00 1.231200e+00 0.000000e+00
      endloop
   endfacet
   facet normal 0.000000e+00 1.456985e-15 -1.000000e+00
      outer loop
         vertex 3.537200e+00 1.231200e+00 0.000000e+00
         vertex 4.620934e+00 1.078800e+00 -2.220446e-16
         vertex 3.537200e+00 1.078800e+00 -2.220446e-16
      endloop
   endfacet
   facet normal 2.428309e-16 1.456985e-15 -1.000000e+00
      outer loop
         vertex 3.537200e+00 1.231200e+00 0.000000e+00
         vertex 3.537200e+00 1.078800e+00 -2.220446e-16
         vertex 3.080000e+00 1.155000e+00 -2.220446e-16
      endloop
   endfacet
   facet normal 1.000000e+00 0.000000e+00 -0.000000e+00
      outer loop
         vertex 4.316133e+00 1.231200e+00 5.080000e-02
         vertex 4.316133e+00 1.231200e+00 1.185333e-01
         vertex 4.316133e+00 1.078800e+00 5.080000e-02
      endloop
   endfacet
   facet normal 1.000000e+00 0.000000e+00 0.000000e+00
      outer loop
         vertex 4.316133e+00 1.078800e+00 5.080000e-02
         vertex 4.316133e+00 1.231200e+00 1.185333e-01
         vertex 4.316133e+00 1.078800e+00 1.185333e-01
      endloop
   endfacet
   facet normal 0.000000e+00 0.000000e+00 1.000000e+00
      outer loop
         vertex 4.316133e+00 1.078800e+00 1.185333e-01
         vertex 4.146800e+00 1.138067e+00 1.185333e-01
         vertex 4.079067e+00 1.138067e+00 1.185333e-01
      endloop
   endfacet
   facet normal -0.000000e+00 0.000000e+00 1.000000e+00
      outer loop
         vertex 4.146800e+00 1.138067e+00 1.185333e-01
         vertex 4.316133e+00 1.078800e+00 1.185333e-01
         vertex 4.146800e+00 1.171933e+00 1.185333e-01
      endloop
   endfacet
   facet normal -0.000000e+00 0.000000e+00 1.000000e+00
      outer loop
         vertex 4.146800e+00 1.171933e+00 1.185333e-01
         vertex 4.316133e+00 1.078800e+00 1.185333e-01
         vertex 4.316133e+00 1.231200e+00 1.185333e-01
      endloop
   endfacet
   facet normal 0.000000e+00 -0.000000e+00 1.000000e+00
      outer loop
         vertex 4.146800e+00 1.171933e+00 1.185333e-01
         vertex 4.316133e+00 1.231200e+00 1.185333e-01
         vertex 4.079067e+00 1.171933e+00 1.185333e-01
      endloop
   endfacet
   facet normal 0.000000e+00 -0.000000e+00 1.000000e+00
      outer loop
         vertex 4.079067e+00 1.171933e+00 1.185333e-01
         vertex 4.316133e+00 1.231200e+00 1.185333e-01
         vertex 3.537200e+00 1.231200e+00 1.185333e-01
      endloop
   endfacet
   facet normal 0.000000e+00 0.000000e+00 1.000000e+00
      outer loop
         vertex 4.079067e+00 1.171933e+00 1.185333e-01
         vertex 3.537200e+00 1.231200e+00 1.185333e-01
         vertex 4.079067e+00 1.138067e+00 1.185333e-01
      endloop
   endfacet
   facet normal 0.000000e+00 0.000000e+00 1.000000e+00
      outer loop
         vertex 4.079067e+00 1.138067e+00 1.185333e-01
         vertex 3.537200e+00 1.231200e+00 1.185333e-01
         vertex 3.537200e+00 1.078800e+00 1.185333e-01
      endloop
   endfacet
   facet normal 0.000000e+00 0.000000e+00 1.000000e+00
      outer loop
         vertex 4.079067e+00 1.138067e+00 1.185333e-01
         vertex 3.537200e+00 1.078800e+00 1.185333e-01
         vertex 4.316133e+00 1.078800e+00 1.185333e-01
      endloop
   endfacet
   facet normal -0.000000e+00 -1.000000e+00 -0.000000e+00
      outer loop
         vertex 4.146800e+00 1.138067e+00 1.862667e-01
         vertex 4.079067e+00 1.138067e+00 1.862667e-01
         vertex 4.146800e+00 1.138067e+00 1.185333e-01
      endloop
   endfacet
   facet normal 0.000000e+00 -1.000000e+00 0.000000e+00
      outer loop
         vertex 4.146800e+00 1.138067e+00 1.185333e-01
         vertex 4.079067e+00 1.138067e+00 1.862667e-01
         vertex 4.079067e+00 1.138067e+00 1.185333e-01
      endloop
   endfacet
   facet normal 1.000000e+00 0.000000e+00 0.000000e+00
      outer loop
         vertex 4.146800e+00 1.171933e+00 1.862667e-01
         vertex 4.146800e+00 1.138067e+00 1.862667e-01
         vertex 4.146800e+00 1.171933e+00 1.185333e-01
      endloop
   endfacet
   facet normal 1.000000e+00 0.000000e+00 0.000000e+00
      outer loop
         vertex 4.146800e+00 1.171933e+00 1.185333e-01
         vertex 4.146800e+00 1.138067e+00 1.862667e-01
         vertex 4.146800e+00 1.138067e+00 1.185333e-01
      endloop
   endfacet
   facet normal -0.000000e+00 1.000000e+00 0.000000e+00
      outer loop
         vertex 4.079067e+00 1.171933e+00 1.862667e-01
         vertex 4.146800e+00 1.171933e+00 1.862667e-01
         vertex 4.079067e+00 1.171933e+00 1.185333e-01
      endloop
   endfacet
   facet normal 0.000000e+00 1.000000e+00 0.000000e+00
      outer loop
         vertex 4.079067e+00 1.171933e+00 1.185333e-01
         vertex 4.146800e+00 1.171933e+00 1.862667e-01
         vertex 4.146800e+00 1.171933e+00 1.185333e-01
      endloop
   endfacet
   facet normal -1.000000e+00 0.000000e+00 0.000000e+00
      outer loop
         vertex 4.079067e+00 1.138067e+00 1.862667e-01
         vertex 4.079067e+00 1.171933e+00 1.862667e-01
         vertex 4.079067e+00 1.138067e+00 1.185333e-01
      endloop
   endfacet
   facet normal -1.000000e+00 0.000000e+00 0.000000e+00
      outer loop
         vertex 4.079067e+00 1.138067e+00 1.185333e-01
         vertex 4.079067e+00 1.171933e+00 1.862667e-01
         vertex 4.079067e+00 1.171933e+00 1.185333e-01
      endloop
   endfacet
   facet normal 0.000000e+00 -0.000000e+00 1.000000e+00
      outer loop
         vertex 4.146800e+00 1.138067e+00 1.862667e-01
         vertex 4.146800e+00 1.171933e+00 1.862667e-01
         vertex 4.079067e+00 1.138067e+00 1.862667e-01
      endloop
   endfacet
   facet normal 0.000000e+00 0.000000e+00 1.000000e+00
      outer loop
         vertex 4.079067e+00 1.138067e+00 1.862667e-01
         vertex 4.146800e+00 1.171933e+00 1.862667e-01
         vertex 4.079067e+00 1.171933e+00 1.862667e-01
      endloop
   endfacet
   facet normal -1.000000e+00 0.000000e+00 0.000000e+00
      outer loop
         vertex 3.537200e+00 1.078800e+00 1.185333e-01
         vertex 3.537200e+00 1.231200e+00 1.185333e-01
         vertex 3.537200e+00 1.078800e+00 5.080000e-02
      endloop
   endfacet
   facet normal -1.000000e+00 0.000000e+00 0.000000e+00
      outer loop
         vertex 3.537200e+00 1.078800e+00 5.080000e-02
         vertex 3.537200e+00 1.231200e+00 1.185333e-01
         vertex 3.537200e+00 1.231200e+00 5.080000e-02
      endloop
   endfacet
   facet normal -1.643990e-01 -9.863939e-01 -0.000000e+00
      outer loop
         vertex 3.537200e+00 1.078800e+00 5.080000e-02
         vertex 3.080000e+00 1.155000e+00 5.080000e-02
         vertex 3.537200e+00 1.078800e+00 0.000000e+00
      endloop
   endfacet
   facet normal -1.643990e-01 -9.863939e-01 0.000000e+00
      outer loop
         vertex 3.537200e+00 1.078800e+00 0.000000e+00
         vertex 3.080000e+00 1.155000e+00 5.080000e-02
         vertex 3.080000e+00 1.155000e+00 2.220446e-16
      endloop
   endfacet
   facet normal -1.643990e-01 9.863939e-01 0.000000e+00
      outer loop
         vertex 3.080000e+00 1.155000e+00 5.080000e-02
         vertex 3.537200e+00 1.231200e+00 5.080000e-02
         vertex 3.080000e+00 1.155000e+00 2.220446e-16
      endloop
   endfacet
   facet normal -1.643990e-01 9.863939e-01 0.000000e+00
      outer loop
         vertex 3.080000e+00 1.155000e+00 2.220446e-16
         vertex 3.537200e+00 1.231200e+00 5.080000e-02
         vertex 3.537200e+00 1.231200e+00 2.220446e-16
      endloop
   endfacet
   facet normal 0.000000e+00 -0.000000e+00 1.000000e+00
      outer loop
         vertex 3.537200e+00 1.078800e+00 5.080000e-02
         vertex 3.537200e+00 1.231200e+00 5.080000e-02
         vertex 3.080000e+00 1.155000e+00 5.080000e-02
      endloop
   endfacet
endsolid