solid sfs2_no_out_surface_long_fluid_15width_4totlength_2_ship_1
   facet normal 0.000000e+00 0.000000e+00 1.000000e+00
      outer loop
         vertex 1.350443e+00 6.938894e-18 4.748830e-01
         vertex 1.765489e+00 6.938894e-18 4.748830e-01
         vertex 1.648757e+00 1.945532e-02 4.748830e-01
      endloop
   endfacet
   facet normal -0.000000e+00 0.000000e+00 1.000000e+00
      outer loop
         vertex 1.648757e+00 1.945532e-02 4.748830e-01
         vertex 1.765489e+00 6.938894e-18 4.748830e-01
         vertex 1.765489e+00 1.945532e-02 4.748830e-01
      endloop
   endfacet
   facet normal 0.000000e+00 0.000000e+00 1.000000e+00
      outer loop
         vertex 1.350443e+00 6.938894e-18 4.748830e-01
         vertex 1.648757e+00 1.945532e-02 4.748830e-01
         vertex 1.350443e+00 1.945532e-02 4.748830e-01
      endloop
   endfacet
   facet normal 0.000000e+00 0.000000e+00 1.000000e+00
      outer loop
         vertex 1.350443e+00 1.945532e-02 4.748830e-01
         vertex 1.648757e+00 1.945532e-02 4.748830e-01
         vertex 1.648757e+00 4.539574e-02 4.748830e-01
      endloop
   endfacet
   facet normal 0.000000e+00 0.000000e+00 1.000000e+00
      outer loop
         vertex 1.350443e+00 1.945532e-02 4.748830e-01
         vertex 1.648757e+00 4.539574e-02 4.748830e-01
         vertex 1.350443e+00 4.539574e-02 4.748830e-01
      endloop
   endfacet
   facet normal 1.000000e+00 0.000000e+00 -0.000000e+00
      outer loop
         vertex 1.765489e+00 1.945532e-02 4.165170e-01
         vertex 1.765489e+00 1.945532e-02 4.748830e-01
         vertex 1.765489e+00 0.000000e+00 4.165170e-01
      endloop
   endfacet
   facet normal 1.000000e+00 0.000000e+00 0.000000e+00
      outer loop
         vertex 1.765489e+00 0.000000e+00 4.165170e-01
         vertex 1.765489e+00 1.945532e-02 4.748830e-01
         vertex 1.765489e+00 0.000000e+00 4.748830e-01
      endloop
   endfacet
   facet normal 0.000000e+00 0.000000e+00 -1.000000e+00
      outer loop
         vertex 1.648757e+00 1.945532e-02 4.165170e-01
         vertex 1.765489e+00 1.945532e-02 4.165170e-01
         vertex 1.765489e+00 6.938894e-18 4.165170e-01
      endloop
   endfacet
   facet normal 0.000000e+00 0.000000e+00 -1.000000e+00
      outer loop
         vertex 1.350443e+00 4.539574e-02 4.165170e-01
         vertex 1.648757e+00 4.539574e-02 4.165170e-01
         vertex 1.350443e+00 1.945532e-02 4.165170e-01
      endloop
   endfacet
   facet normal 0.000000e+00 0.000000e+00 -1.000000e+00
      outer loop
         vertex 1.350443e+00 1.945532e-02 4.165170e-01
         vertex 1.648757e+00 4.539574e-02 4.165170e-01
         vertex 1.648757e+00 1.945532e-02 4.165170e-01
      endloop
   endfacet
   facet normal 0.000000e+00 0.000000e+00 -1.000000e+00
      outer loop
         vertex 1.350443e+00 1.945532e-02 4.165170e-01
         vertex 1.648757e+00 1.945532e-02 4.165170e-01
         vertex 1.350443e+00 6.938894e-18 4.165170e-01
      endloop
   endfacet
   facet normal 0.000000e+00 0.000000e+00 -1.000000e+00
      outer loop
         vertex 1.350443e+00 6.938894e-18 4.165170e-01
         vertex 1.648757e+00 1.945532e-02 4.165170e-01
         vertex 1.765489e+00 6.938894e-18 4.165170e-01
      endloop
   endfacet
   facet normal 0.000000e+00 1.000000e+00 -0.000000e+00
      outer loop
         vertex 1.765489e+00 1.945532e-02 4.165170e-01
         vertex 1.648757e+00 1.945532e-02 4.165170e-01
         vertex 1.765489e+00 1.945532e-02 4.748830e-01
      endloop
   endfacet
   facet normal 0.000000e+00 1.000000e+00 0.000000e+00
      outer loop
         vertex 1.765489e+00 1.945532e-02 4.748830e-01
         vertex 1.648757e+00 1.945532e-02 4.165170e-01
         vertex 1.648757e+00 1.945532e-02 4.748830e-01
      endloop
   endfacet
   facet normal 0.000000e+00 -1.000000e+00 0.000000e+00
      outer loop
         vertex 1.175345e+00 0.000000e+00 4.457000e-01
         vertex 1.350443e+00 0.000000e+00 4.165170e-01
         vertex 1.350443e+00 0.000000e+00 4.748830e-01
      endloop
   endfacet
   facet normal 0.000000e+00 -1.000000e+00 0.000000e+00
      outer loop
         vertex 1.350443e+00 0.000000e+00 4.748830e-01
         vertex 1.350443e+00 0.000000e+00 4.165170e-01
         vertex 1.765489e+00 0.000000e+00 4.165170e-01
      endloop
   endfacet
   facet normal 0.000000e+00 -1.000000e+00 0.000000e+00
      outer loop
         vertex 1.350443e+00 0.000000e+00 4.748830e-01
         vertex 1.765489e+00 0.000000e+00 4.165170e-01
         vertex 1.765489e+00 0.000000e+00 4.748830e-01
      endloop
   endfacet
   facet normal 1.000000e+00 0.000000e+00 0.000000e+00
      outer loop
         vertex 1.648757e+00 1.945532e-02 4.165170e-01
         vertex 1.648757e+00 4.539574e-02 4.165170e-01
         vertex 1.648757e+00 1.945532e-02 4.748830e-01
      endloop
   endfacet
   facet normal 1.000000e+00 -0.000000e+00 0.000000e+00
      outer loop
         vertex 1.648757e+00 1.945532e-02 4.748830e-01
         vertex 1.648757e+00 4.539574e-02 4.165170e-01
         vertex 1.648757e+00 4.539574e-02 4.748830e-01
      endloop
   endfacet
   facet normal 0.000000e+00 1.000000e+00 0.000000e+00
      outer loop
         vertex 1.648757e+00 4.539574e-02 4.748830e-01
         vertex 1.583906e+00 4.539574e-02 4.521851e-01
         vertex 1.557966e+00 4.539574e-02 4.521851e-01
      endloop
   endfacet
   facet normal -0.000000e+00 1.000000e+00 0.000000e+00
      outer loop
         vertex 1.583906e+00 4.539574e-02 4.521851e-01
         vertex 1.648757e+00 4.539574e-02 4.748830e-01
         vertex 1.583906e+00 4.539574e-02 4.392149e-01
      endloop
   endfacet
   facet normal -0.000000e+00 1.000000e+00 0.000000e+00
      outer loop
         vertex 1.583906e+00 4.539574e-02 4.392149e-01
         vertex 1.648757e+00 4.539574e-02 4.748830e-01
         vertex 1.648757e+00 4.539574e-02 4.165170e-01
      endloop
   endfacet
   facet normal 0.000000e+00 1.000000e+00 0.000000e+00
      outer loop
         vertex 1.583906e+00 4.539574e-02 4.392149e-01
         vertex 1.648757e+00 4.539574e-02 4.165170e-01
         vertex 1.557966e+00 4.539574e-02 4.392149e-01
      endloop
   endfacet
   facet normal 0.000000e+00 1.000000e+00 0.000000e+00
      outer loop
         vertex 1.557966e+00 4.539574e-02 4.392149e-01
         vertex 1.648757e+00 4.539574e-02 4.165170e-01
         vertex 1.350443e+00 4.539574e-02 4.165170e-01
      endloop
   endfacet
   facet normal 0.000000e+00 1.000000e+00 -0.000000e+00
      outer loop
         vertex 1.557966e+00 4.539574e-02 4.392149e-01
         vertex 1.350443e+00 4.539574e-02 4.165170e-01
         vertex 1.557966e+00 4.539574e-02 4.521851e-01
      endloop
   endfacet
   facet normal 0.000000e+00 1.000000e+00 0.000000e+00
      outer loop
         vertex 1.557966e+00 4.539574e-02 4.521851e-01
         vertex 1.350443e+00 4.539574e-02 4.165170e-01
         vertex 1.350443e+00 4.539574e-02 4.748830e-01
      endloop
   endfacet
   facet normal 0.000000e+00 1.000000e+00 -0.000000e+00
      outer loop
         vertex 1.557966e+00 4.539574e-02 4.521851e-01
         vertex 1.350443e+00 4.539574e-02 4.748830e-01
         vertex 1.648757e+00 4.539574e-02 4.748830e-01
      endloop
   endfacet
   facet normal 0.000000e+00 0.000000e+00 1.000000e+00
      outer loop
         vertex 1.583906e+00 7.133617e-02 4.521851e-01
         vertex 1.557966e+00 7.133617e-02 4.521851e-01
         vertex 1.583906e+00 4.539574e-02 4.521851e-01
      endloop
   endfacet
   facet normal 0.000000e+00 0.000000e+00 1.000000e+00
      outer loop
         vertex 1.583906e+00 4.539574e-02 4.521851e-01
         vertex 1.557966e+00 7.133617e-02 4.521851e-01
         vertex 1.557966e+00 4.539574e-02 4.521851e-01
      endloop
   endfacet
   facet normal 1.000000e+00 0.000000e+00 -0.000000e+00
      outer loop
         vertex 1.583906e+00 7.133617e-02 4.392149e-01
         vertex 1.583906e+00 7.133617e-02 4.521851e-01
         vertex 1.583906e+00 4.539574e-02 4.392149e-01
      endloop
   endfacet
   facet normal 1.000000e+00 0.000000e+00 0.000000e+00
      outer loop
         vertex 1.583906e+00 4.539574e-02 4.392149e-01
         vertex 1.583906e+00 7.133617e-02 4.521851e-01
         vertex 1.583906e+00 4.539574e-02 4.521851e-01
      endloop
   endfacet
   facet normal 0.000000e+00 0.000000e+00 -1.000000e+00
      outer loop
         vertex 1.557966e+00 7.133617e-02 4.392149e-01
         vertex 1.583906e+00 7.133617e-02 4.392149e-01
         vertex 1.557966e+00 4.539574e-02 4.392149e-01
      endloop
   endfacet
   facet normal 0.000000e+00 0.000000e+00 -1.000000e+00
      outer loop
         vertex 1.557966e+00 4.539574e-02 4.392149e-01
         vertex 1.583906e+00 7.133617e-02 4.392149e-01
         vertex 1.583906e+00 4.539574e-02 4.392149e-01
      endloop
   endfacet
   facet normal -1.000000e+00 -0.000000e+00 -0.000000e+00
      outer loop
         vertex 1.557966e+00 7.133617e-02 4.521851e-01
         vertex 1.557966e+00 7.133617e-02 4.392149e-01
         vertex 1.557966e+00 4.539574e-02 4.521851e-01
      endloop
   endfacet
   facet normal -1.000000e+00 0.000000e+00 0.000000e+00
      outer loop
         vertex 1.557966e+00 4.539574e-02 4.521851e-01
         vertex 1.557966e+00 7.133617e-02 4.392149e-01
         vertex 1.557966e+00 4.539574e-02 4.392149e-01
      endloop
   endfacet
   facet normal 0.000000e+00 1.000000e+00 0.000000e+00
      outer loop
         vertex 1.583906e+00 7.133617e-02 4.521851e-01
         vertex 1.583906e+00 7.133617e-02 4.392149e-01
         vertex 1.557966e+00 7.133617e-02 4.521851e-01
      endloop
   endfacet
   facet normal 0.000000e+00 1.000000e+00 0.000000e+00
      outer loop
         vertex 1.557966e+00 7.133617e-02 4.521851e-01
         vertex 1.583906e+00 7.133617e-02 4.392149e-01
         vertex 1.557966e+00 7.133617e-02 4.392149e-01
      endloop
   endfacet
   facet normal -1.000000e+00 -0.000000e+00 -0.000000e+00
      outer loop
         vertex 1.350443e+00 4.539574e-02 4.748830e-01
         vertex 1.350443e+00 4.539574e-02 4.165170e-01
         vertex 1.350443e+00 1.945532e-02 4.748830e-01
      endloop
   endfacet
   facet normal -1.000000e+00 0.000000e+00 0.000000e+00
      outer loop
         vertex 1.350443e+00 1.945532e-02 4.748830e-01
         vertex 1.350443e+00 4.539574e-02 4.165170e-01
         vertex 1.350443e+00 1.945532e-02 4.165170e-01
      endloop
   endfacet
   facet normal -1.643992e-01 0.000000e+00 9.863939e-01
      outer loop
         vertex 1.350443e+00 1.945532e-02 4.748830e-01
         vertex 1.175345e+00 1.945532e-02 4.457000e-01
         vertex 1.350443e+00 0.000000e+00 4.748830e-01
      endloop
   endfacet
   facet normal -1.643992e-01 0.000000e+00 9.863939e-01
      outer loop
         vertex 1.350443e+00 0.000000e+00 4.748830e-01
         vertex 1.175345e+00 1.945532e-02 4.457000e-01
         vertex 1.175345e+00 0.000000e+00 4.457000e-01
      endloop
   endfacet
   facet normal -1.643990e-01 -0.000000e+00 -9.863939e-01
      outer loop
         vertex 1.175345e+00 1.945532e-02 4.457000e-01
         vertex 1.350443e+00 1.945532e-02 4.165170e-01
         vertex 1.175345e+00 0.000000e+00 4.457000e-01
      endloop
   endfacet
   facet normal -1.643990e-01 0.000000e+00 -9.863939e-01
      outer loop
         vertex 1.175345e+00 0.000000e+00 4.457000e-01
         vertex 1.350443e+00 1.945532e-02 4.165170e-01
         vertex 1.350443e+00 0.000000e+00 4.165170e-01
      endloop
   endfacet
   facet normal 0.000000e+00 1.000000e+00 0.000000e+00
      outer loop
         vertex 1.350443e+00 1.945532e-02 4.748830e-01
         vertex 1.350443e+00 1.945532e-02 4.165170e-01
         vertex 1.175345e+00 1.945532e-02 4.457000e-01
      endloop
   endfacet
endsolid