0.29972, -0.24130, 0.07112, 1
0.29972, -0.21082, 0.07112, 1
0.29972, -0.18034, 0.07112, 1
0.29972, -0.14986, 0.07112, 1
0.29972, -0.11938, 0.07112, 1
0.29972, -0.09015, 0.07112, 1
0.29972, -0.06096, 0.07112, 1
0.29972, -0.03048, 0.07112, 1
0.29972,  0.00000, 0.07112, 1
0.29972,  0.03048, 0.07112, 1
0.29972,  0.06096, 0.07112, 1
0.29972,  0.09015, 0.07112, 1
0.29972,  0.11938, 0.07112, 1
0.29972,  0.14986, 0.07112, 1
0.29972,  0.18034, 0.07112, 1
0.29972,  0.21082, 0.07112, 1
0.29972,  0.24130, 0.07112, 1
0.29972, -0.24130, 0.10922, 1
0.29972, -0.21082, 0.10922, 1
0.29972, -0.18034, 0.10922, 1
0.29972, -0.14986, 0.10922, 1
0.29972, -0.11938, 0.10922, 1
0.29972, -0.09015, 0.10922, 1
0.29972, -0.06096, 0.10922, 1
0.29972, -0.03048, 0.10922, 1
0.29972,  0.00000, 0.10922, 1
0.29972,  0.03048, 0.10922, 1
0.29972,  0.06096, 0.10922, 1
0.29972,  0.09015, 0.10922, 1
0.29972,  0.11938, 0.10922, 1
0.29972,  0.14986, 0.10922, 1
0.29972,  0.18034, 0.10922, 1
0.29972,  0.21082, 0.10922, 1
0.29972,  0.24130, 0.10922, 1
0.29972, -0.24130, 0.14986, 1
0.29972, -0.21082, 0.14986, 1
0.29972, -0.18034, 0.14986, 1
0.29972, -0.14986, 0.14986, 1
0.29972, -0.11938, 0.14986, 1
0.29972, -0.09015, 0.14986, 1
0.29972, -0.06096, 0.14986, 1
0.29972, -0.03048, 0.14986, 1
0.29972,  0.00000, 0.14986, 1
0.29972,  0.03048, 0.14986, 1
0.29972,  0.06096, 0.14986, 1
0.29972,  0.09015, 0.14986, 1
0.29972,  0.11938, 0.14986, 1
0.29972,  0.14986, 0.14986, 1
0.29972,  0.18034, 0.14986, 1
0.29972,  0.21082, 0.14986, 1
0.29972,  0.24130, 0.14986, 1
0.29972, -0.24130, 0.19050, 1
0.29972, -0.21082, 0.19050, 1
0.29972, -0.18034, 0.19050, 1
0.29972, -0.14986, 0.19050, 1
0.29972, -0.11938, 0.19050, 1
0.29972, -0.09015, 0.19050, 1
0.29972, -0.06096, 0.19050, 1
0.29972, -0.03048, 0.19050, 1
0.29972,  0.00000, 0.19050, 1
0.29972,  0.03048, 0.19050, 1
0.29972,  0.06096, 0.19050, 1
0.29972,  0.09015, 0.19050, 1
0.29972,  0.11938, 0.19050, 1
0.29972,  0.14986, 0.19050, 1
0.29972,  0.18034, 0.19050, 1
0.29972,  0.21082, 0.19050, 1
0.29972,  0.24130, 0.19050, 1
0.29972, -0.24130, 0.23114, 1
0.29972, -0.21082, 0.23114, 1
0.29972, -0.18034, 0.23114, 1
0.29972, -0.14986, 0.23114, 1
0.29972, -0.11938, 0.23114, 1
0.29972, -0.09015, 0.23114, 1
0.29972, -0.06096, 0.23114, 1
0.29972, -0.03048, 0.23114, 1
0.29972,  0.00000, 0.23114, 1
0.29972,  0.03048, 0.23114, 1
0.29972,  0.06096, 0.23114, 1
0.29972,  0.09015, 0.23114, 1
0.29972,  0.11938, 0.23114, 1
0.29972,  0.14986, 0.23114, 1
0.29972,  0.18034, 0.23114, 1
0.29972,  0.21082, 0.23114, 1
0.29972,  0.24130, 0.23114, 1
0.38100, -0.24130, 0.07112, 1
0.38100, -0.21082, 0.07112, 1
0.38100, -0.18034, 0.07112, 1
0.38100, -0.14986, 0.07112, 1
0.38100, -0.11938, 0.07112, 1
0.38100, -0.09015, 0.07112, 1
0.38100, -0.06096, 0.07112, 1
0.38100, -0.03048, 0.07112, 1
0.38100,  0.00000, 0.07112, 1
0.38100,  0.03048, 0.07112, 1
0.38100,  0.06096, 0.07112, 1
0.38100,  0.09015, 0.07112, 1
0.38100,  0.11938, 0.07112, 1
0.38100,  0.14986, 0.07112, 1
0.38100,  0.18034, 0.07112, 1
0.38100,  0.21082, 0.07112, 1
0.38100,  0.24130, 0.07112, 1
0.38100, -0.24130, 0.10922, 1
0.38100, -0.21082, 0.10922, 1
0.38100, -0.18034, 0.10922, 1
0.38100, -0.14986, 0.10922, 1
0.38100, -0.11938, 0.10922, 1
0.38100, -0.09015, 0.10922, 1
0.38100, -0.06096, 0.10922, 1
0.38100, -0.03048, 0.10922, 1
0.38100,  0.00000, 0.10922, 1
0.38100,  0.03048, 0.10922, 1
0.38100,  0.06096, 0.10922, 1
0.38100,  0.09015, 0.10922, 1
0.38100,  0.11938, 0.10922, 1
0.38100,  0.14986, 0.10922, 1
0.38100,  0.18034, 0.10922, 1
0.38100,  0.21082, 0.10922, 1
0.38100,  0.24130, 0.10922, 1
0.38100, -0.24130, 0.14986, 1
0.38100, -0.21082, 0.14986, 1
0.38100, -0.18034, 0.14986, 1
0.38100, -0.14986, 0.14986, 1
0.38100, -0.11938, 0.14986, 1
0.38100, -0.09015, 0.14986, 1
0.38100, -0.06096, 0.14986, 1
0.38100, -0.03048, 0.14986, 1
0.38100,  0.00000, 0.14986, 1
0.38100,  0.03048, 0.14986, 1
0.38100,  0.06096, 0.14986, 1
0.38100,  0.09015, 0.14986, 1
0.38100,  0.11938, 0.14986, 1
0.38100,  0.14986, 0.14986, 1
0.38100,  0.18034, 0.14986, 1
0.38100,  0.21082, 0.14986, 1
0.38100,  0.24130, 0.14986, 1
0.38100, -0.24130, 0.19050, 1
0.38100, -0.21082, 0.19050, 1
0.38100, -0.18034, 0.19050, 1
0.38100, -0.14986, 0.19050, 1
0.38100, -0.11938, 0.19050, 1
0.38100, -0.09015, 0.19050, 1
0.38100, -0.06096, 0.19050, 1
0.38100, -0.03048, 0.19050, 1
0.38100,  0.00000, 0.19050, 1
0.38100,  0.03048, 0.19050, 1
0.38100,  0.06096, 0.19050, 1
0.38100,  0.09015, 0.19050, 1
0.38100,  0.11938, 0.19050, 1
0.38100,  0.14986, 0.19050, 1
0.38100,  0.18034, 0.19050, 1
0.38100,  0.21082, 0.19050, 1
0.38100,  0.24130, 0.19050, 1
0.38100, -0.24130, 0.23114, 1
0.38100, -0.21082, 0.23114, 1
0.38100, -0.18034, 0.23114, 1
0.38100, -0.14986, 0.23114, 1
0.38100, -0.11938, 0.23114, 1
0.38100, -0.09015, 0.23114, 1
0.38100, -0.06096, 0.23114, 1
0.38100, -0.03048, 0.23114, 1
0.38100,  0.00000, 0.23114, 1
0.38100,  0.03048, 0.23114, 1
0.38100,  0.06096, 0.23114, 1
0.38100,  0.09015, 0.23114, 1
0.38100,  0.11938, 0.23114, 1
0.38100,  0.14986, 0.23114, 1
0.38100,  0.18034, 0.23114, 1
0.38100,  0.21082, 0.23114, 1
0.38100,  0.24130, 0.23114, 1